[gd_scene load_steps=4 format=3 uid="uid://cqun7scy7uvce"]

[ext_resource type="Script" path="res://minigames/pong/ball.gd" id="1_2abd1"]

[sub_resource type="RectangleShape2D" id="RectangleShape2D_xor67"]

[sub_resource type="CanvasTexture" id="CanvasTexture_0akco"]

[node name="ball" type="Area2D"]
script = ExtResource("1_2abd1")

[node name="CollisionShape2D" type="CollisionShape2D" parent="."]
shape = SubResource("RectangleShape2D_xor67")

[node name="Sprite2D" type="Sprite2D" parent="."]
scale = Vector2(20, 20)
texture = SubResource("CanvasTexture_0akco")
