[gd_scene load_steps=5 format=3 uid="uid://cw5bfjlth7xqn"]

[ext_resource type="Script" path="res://minigames/pong/player.gd" id="1_1i3n1"]

[sub_resource type="RectangleShape2D" id="RectangleShape2D_ep2qr"]
size = Vector2(16, 80)

[sub_resource type="CanvasTexture" id="CanvasTexture_fh1na"]

[sub_resource type="SceneReplicationConfig" id="SceneReplicationConfig_nm02i"]
properties/0/path = NodePath(".:position")
properties/0/spawn = true
properties/0/sync = true
properties/0/watch = false

[node name="player" type="Area2D"]
script = ExtResource("1_1i3n1")

[node name="CollisionShape2D" type="CollisionShape2D" parent="."]
shape = SubResource("RectangleShape2D_ep2qr")

[node name="Sprite2D" type="Sprite2D" parent="."]
scale = Vector2(16, 80)
texture = SubResource("CanvasTexture_fh1na")

[node name="MultiplayerSynchronizer" type="MultiplayerSynchronizer" parent="."]
replication_config = SubResource("SceneReplicationConfig_nm02i")
